{
  "content": [
    {
      "id": "S1235467590910939136",
      "name": "沁园（TRULIVA）饮水机 家用立式净饮机 即热式净水器净水机纯水直饮机ROplus JLXZ-RO Plus  红色  25L  手动净水",
      "price": 1699,
      "seckillPrice": 2024,
      "image": "https://img14.360buyimg.com/n7/jfs/t1/99256/25/13788/107923/5e5e10a2Ed03b7e32/c91175d9ff692da9.jpg",
      "updateTime": "2020-03-12T18:57:58.000+0000",
      "category1Id": "74",
      "category2Id": "89",
      "category3Id": "93",
      "category1Name": "家用电器",
      "category2Name": "生活电器",
      "category3Name": "饮水机",
      "brandName": "沁园",
      "bgtime": null,
      "brandId": "325411",
      "seckillBegin": "2020-04-08T09:33:03.000+0000",
      "seckillEnd": "2020-06-23T09:33:03.000+0000",
      "status": 2,
      "spec": "{\"机体颜色\":\"红色\",\"容量\":\"25L\",\"净水模式\":\"手动净水\"}",
      "points": 10
    },
    {
      "id": "S1235467591196151808",
      "name": "沁园（TRULIVA）饮水机 家用立式净饮机 即热式净水器净水机纯水直饮机ROplus JLXZ-RO Plus  灰色  22L  过滤净水",
      "price": 559,
      "seckillPrice": 2204,
      "image": "https://img14.360buyimg.com/n7/jfs/t1/99256/25/13788/107923/5e5e10a2Ed03b7e32/c91175d9ff692da9.jpg",
      "updateTime": "2020-03-12T18:57:58.000+0000",
      "category1Id": "74",
      "category2Id": "89",
      "category3Id": "93",
      "category1Name": "家用电器",
      "category2Name": "生活电器",
      "category3Name": "饮水机",
      "brandName": "沁园",
      "bgtime": null,
      "brandId": "325411",
      "seckillBegin": "2020-04-08T09:33:03.000+0000",
      "seckillEnd": "2020-06-23T09:33:03.000+0000",
      "status": 2,
      "spec": "{\"机体颜色\":\"灰色\",\"容量\":\"22L\",\"净水模式\":\"过滤净水\"}",
      "points": 10
    },
    {
      "id": "S1235467591183568896",
      "name": "沁园（TRULIVA）饮水机 家用立式净饮机 即热式净水器净水机纯水直饮机ROplus JLXZ-RO Plus  灰色  22L  自动净水",
      "price": 80,
      "seckillPrice": 1331,
      "image": "https://img14.360buyimg.com/n7/jfs/t1/99256/25/13788/107923/5e5e10a2Ed03b7e32/c91175d9ff692da9.jpg",
      "updateTime": "2020-03-12T18:57:58.000+0000",
      "category1Id": "74",
      "category2Id": "89",
      "category3Id": "93",
      "category1Name": "家用电器",
      "category2Name": "生活电器",
      "category3Name": "饮水机",
      "brandName": "沁园",
      "bgtime": null,
      "brandId": "325411",
      "seckillBegin": "2020-04-08T09:33:03.000+0000",
      "seckillEnd": "2020-06-23T09:33:03.000+0000",
      "status": 2,
      "spec": "{\"机体颜色\":\"灰色\",\"容量\":\"22L\",\"净水模式\":\"自动净水\"}",
      "points": 10
    },
    {
      "id": "S1235464737936957440",
      "name": "新诗“精魂”的追寻：穆旦研究新探  诗歌  韩文  老年",
      "price": 0,
      "seckillPrice": 6366,
      "image": "https://img10.360buyimg.com/n7/jfs/t1/26726/33/15408/237421/5cb081f4E1da4979a/8583ee357ff986d1.jpg",
      "updateTime": "2020-03-12T18:57:58.000+0000",
      "category1Id": "1",
      "category2Id": "2",
      "category3Id": "3",
      "category1Name": "图书、音像、电子书刊",
      "category2Name": "电子书刊",
      "category3Name": "电子书",
      "brandName": "威图",
      "bgtime": null,
      "brandId": "17424",
      "seckillBegin": "2020-04-08T09:33:03.000+0000",
      "seckillEnd": "2020-06-23T09:33:03.000+0000",
      "status": 2,
      "spec": "{\"书籍类型\":\"诗歌\",\"语言\":\"韩文\",\"适合人群\":\"老年\"}",
      "points": 10
    },
    {
      "id": "S1235464737785962496",
      "name": "新诗“精魂”的追寻：穆旦研究新探  散文  英文  老年",
      "price": 6,
      "seckillPrice": 1583,
      "image": "https://img10.360buyimg.com/n7/10834/e478cacc-aaa5-405d-816c-77842ba74002.jpg",
      "updateTime": "2020-03-12T18:57:58.000+0000",
      "category1Id": "1",
      "category2Id": "2",
      "category3Id": "3",
      "category1Name": "图书、音像、电子书刊",
      "category2Name": "电子书刊",
      "category3Name": "电子书",
      "brandName": "威图",
      "bgtime": null,
      "brandId": "17424",
      "seckillBegin": "2020-04-08T09:33:03.000+0000",
      "seckillEnd": "2020-06-23T09:33:03.000+0000",
      "status": 2,
      "spec": "{\"书籍类型\":\"散文\",\"语言\":\"英文\",\"适合人群\":\"老年\"}",
      "points": 10
    },
    {
      "id": "S1235467591426838528",
      "name": "沁园（TRULIVA）饮水机 家用立式净饮机 即热式净水器净水机纯水直饮机ROplus JLXZ-RO Plus  银白色  5L  抑菌装置净水",
      "price": 99,
      "seckillPrice": 1284,
      "image": "https://img14.360buyimg.com/n7/jfs/t1/99256/25/13788/107923/5e5e10a2Ed03b7e32/c91175d9ff692da9.jpg",
      "updateTime": "2020-03-12T18:57:59.000+0000",
      "category1Id": "74",
      "category2Id": "89",
      "category3Id": "93",
      "category1Name": "家用电器",
      "category2Name": "生活电器",
      "category3Name": "饮水机",
      "brandName": "沁园",
      "bgtime": null,
      "brandId": "325411",
      "seckillBegin": "2020-04-08T09:33:03.000+0000",
      "seckillEnd": "2020-06-23T09:33:03.000+0000",
      "status": 2,
      "spec": "{\"机体颜色\":\"银白色\",\"容量\":\"5L\",\"净水模式\":\"抑菌装置净水\"}",
      "points": 10
    },
    {
      "id": "S1235467591292620800",
      "name": "沁园（TRULIVA）饮水机 家用立式净饮机 即热式净水器净水机纯水直饮机ROplus JLXZ-RO Plus  灰色  25L  抑菌装置净水",
      "price": 499,
      "seckillPrice": 4761,
      "image": "https://img14.360buyimg.com/n7/jfs/t1/99256/25/13788/107923/5e5e10a2Ed03b7e32/c91175d9ff692da9.jpg",
      "updateTime": "2020-03-12T18:57:58.000+0000",
      "category1Id": "74",
      "category2Id": "89",
      "category3Id": "93",
      "category1Name": "家用电器",
      "category2Name": "生活电器",
      "category3Name": "饮水机",
      "brandName": "沁园",
      "bgtime": null,
      "brandId": "325411",
      "seckillBegin": "2020-04-08T09:33:03.000+0000",
      "seckillEnd": "2020-06-23T09:33:03.000+0000",
      "status": 2,
      "spec": "{\"机体颜色\":\"灰色\",\"容量\":\"25L\",\"净水模式\":\"抑菌装置净水\"}",
      "points": 10
    },
    {
      "id": "S1235467591447810048",
      "name": "沁园（TRULIVA）饮水机 家用立式净饮机 即热式净水器净水机纯水直饮机ROplus JLXZ-RO Plus  银白色  22L  手动净水",
      "price": 23999,
      "seckillPrice": 5053,
      "image": "https://img14.360buyimg.com/n7/jfs/t1/99256/25/13788/107923/5e5e10a2Ed03b7e32/c91175d9ff692da9.jpg",
      "updateTime": "2020-03-12T18:57:59.000+0000",
      "category1Id": "74",
      "category2Id": "89",
      "category3Id": "93",
      "category1Name": "家用电器",
      "category2Name": "生活电器",
      "category3Name": "饮水机",
      "brandName": "沁园",
      "bgtime": null,
      "brandId": "325411",
      "seckillBegin": "2020-04-08T09:33:03.000+0000",
      "seckillEnd": "2020-06-23T09:33:03.000+0000",
      "status": 2,
      "spec": "{\"机体颜色\":\"银白色\",\"容量\":\"22L\",\"净水模式\":\"手动净水\"}",
      "points": 10
    },
    {
      "id": "S1235467591464587264",
      "name": "沁园（TRULIVA）饮水机 家用立式净饮机 即热式净水器净水机纯水直饮机ROplus JLXZ-RO Plus  银白色  22L  自动净水",
      "price": 699,
      "seckillPrice": 1415,
      "image": "https://img14.360buyimg.com/n7/jfs/t1/99256/25/13788/107923/5e5e10a2Ed03b7e32/c91175d9ff692da9.jpg",
      "updateTime": "2020-03-12T18:57:59.000+0000",
      "category1Id": "74",
      "category2Id": "89",
      "category3Id": "93",
      "category1Name": "家用电器",
      "category2Name": "生活电器",
      "category3Name": "饮水机",
      "brandName": "沁园",
      "bgtime": null,
      "brandId": "325411",
      "seckillBegin": "2020-04-08T09:33:03.000+0000",
      "seckillEnd": "2020-06-23T09:33:03.000+0000",
      "status": 2,
      "spec": "{\"机体颜色\":\"银白色\",\"容量\":\"22L\",\"净水模式\":\"自动净水\"}",
      "points": 10
    },
    {
      "id": "S1235467591481364480",
      "name": "沁园（TRULIVA）饮水机 家用立式净饮机 即热式净水器净水机纯水直饮机ROplus JLXZ-RO Plus  银白色  22L  过滤净水",
      "price": 666,
      "seckillPrice": 1914,
      "image": "https://img14.360buyimg.com/n7/jfs/t1/99256/25/13788/107923/5e5e10a2Ed03b7e32/c91175d9ff692da9.jpg",
      "updateTime": "2020-03-12T18:57:59.000+0000",
      "category1Id": "74",
      "category2Id": "89",
      "category3Id": "93",
      "category1Name": "家用电器",
      "category2Name": "生活电器",
      "category3Name": "饮水机",
      "brandName": "沁园",
      "bgtime": null,
      "brandId": "325411",
      "seckillBegin": "2020-04-08T09:33:03.000+0000",
      "seckillEnd": "2020-06-23T09:33:03.000+0000",
      "status": 2,
      "spec": "{\"机体颜色\":\"银白色\",\"容量\":\"22L\",\"净水模式\":\"过滤净水\"}",
      "points": 10
    },
    {
      "id": "S1235467591615582208",
      "name": "沁园（TRULIVA）饮水机 家用立式净饮机 即热式净水器净水机纯水直饮机ROplus JLXZ-RO Plus  银白色  30L  自动净水",
      "price": 2599,
      "seckillPrice": 1790,
      "image": "https://img14.360buyimg.com/n7/jfs/t1/99256/25/13788/107923/5e5e10a2Ed03b7e32/c91175d9ff692da9.jpg",
      "updateTime": "2020-03-12T18:57:59.000+0000",
      "category1Id": "74",
      "category2Id": "89",
      "category3Id": "93",
      "category1Name": "家用电器",
      "category2Name": "生活电器",
      "category3Name": "饮水机",
      "brandName": "沁园",
      "bgtime": null,
      "brandId": "325411",
      "seckillBegin": "2020-04-08T09:33:03.000+0000",
      "seckillEnd": "2020-06-23T09:33:03.000+0000",
      "status": 2,
      "spec": "{\"机体颜色\":\"银白色\",\"容量\":\"30L\",\"净水模式\":\"自动净水\"}",
      "points": 10
    },
    {
      "id": "S1235467591514918912",
      "name": "沁园（TRULIVA）饮水机 家用立式净饮机 即热式净水器净水机纯水直饮机ROplus JLXZ-RO Plus  银白色  25L  手动净水",
      "price": 1549,
      "seckillPrice": 877,
      "image": "https://img14.360buyimg.com/n7/jfs/t1/99256/25/13788/107923/5e5e10a2Ed03b7e32/c91175d9ff692da9.jpg",
      "updateTime": "2020-03-12T18:57:59.000+0000",
      "category1Id": "74",
      "category2Id": "89",
      "category3Id": "93",
      "category1Name": "家用电器",
      "category2Name": "生活电器",
      "category3Name": "饮水机",
      "brandName": "沁园",
      "bgtime": null,
      "brandId": "325411",
      "seckillBegin": "2020-04-08T09:33:03.000+0000",
      "seckillEnd": "2020-06-23T09:33:03.000+0000",
      "status": 2,
      "spec": "{\"机体颜色\":\"银白色\",\"容量\":\"25L\",\"净水模式\":\"手动净水\"}",
      "points": 10
    },
    {
      "id": "S1235467591414255616",
      "name": "沁园（TRULIVA）饮水机 家用立式净饮机 即热式净水器净水机纯水直饮机ROplus JLXZ-RO Plus  银白色  5L  过滤净水",
      "price": 99,
      "seckillPrice": 7123,
      "image": "https://img14.360buyimg.com/n7/jfs/t1/99256/25/13788/107923/5e5e10a2Ed03b7e32/c91175d9ff692da9.jpg",
      "updateTime": "2020-03-12T18:57:58.000+0000",
      "category1Id": "74",
      "category2Id": "89",
      "category3Id": "93",
      "category1Name": "家用电器",
      "category2Name": "生活电器",
      "category3Name": "饮水机",
      "brandName": "沁园",
      "bgtime": null,
      "brandId": "325411",
      "seckillBegin": "2020-04-08T09:33:03.000+0000",
      "seckillEnd": "2020-06-23T09:33:03.000+0000",
      "status": 2,
      "spec": "{\"机体颜色\":\"银白色\",\"容量\":\"5L\",\"净水模式\":\"过滤净水\"}",
      "points": 10
    },
    {
      "id": "S1235467591393284096",
      "name": "沁园（TRULIVA）饮水机 家用立式净饮机 即热式净水器净水机纯水直饮机ROplus JLXZ-RO Plus  银白色  5L  自动净水",
      "price": 1599,
      "seckillPrice": 1443,
      "image": "https://img14.360buyimg.com/n7/jfs/t1/99256/25/13788/107923/5e5e10a2Ed03b7e32/c91175d9ff692da9.jpg",
      "updateTime": "2020-03-12T18:57:58.000+0000",
      "category1Id": "74",
      "category2Id": "89",
      "category3Id": "93",
      "category1Name": "家用电器",
      "category2Name": "生活电器",
      "category3Name": "饮水机",
      "brandName": "沁园",
      "bgtime": null,
      "brandId": "325411",
      "seckillBegin": "2020-04-08T09:33:03.000+0000",
      "seckillEnd": "2020-06-23T09:33:03.000+0000",
      "status": 2,
      "spec": "{\"机体颜色\":\"银白色\",\"容量\":\"5L\",\"净水模式\":\"自动净水\"}",
      "points": 10
    },
    {
      "id": "S1235467591653330944",
      "name": "沁园（TRULIVA）饮水机 家用立式净饮机 即热式净水器净水机纯水直饮机ROplus JLXZ-RO Plus  银白色  30L  抑菌装置净水",
      "price": 599,
      "seckillPrice": 6234,
      "image": "https://img14.360buyimg.com/n7/jfs/t1/99256/25/13788/107923/5e5e10a2Ed03b7e32/c91175d9ff692da9.jpg",
      "updateTime": "2020-03-12T18:57:59.000+0000",
      "category1Id": "74",
      "category2Id": "89",
      "category3Id": "93",
      "category1Name": "家用电器",
      "category2Name": "生活电器",
      "category3Name": "饮水机",
      "brandName": "沁园",
      "bgtime": null,
      "brandId": "325411",
      "seckillBegin": "2020-04-08T09:33:03.000+0000",
      "seckillEnd": "2020-06-23T09:33:03.000+0000",
      "status": 2,
      "spec": "{\"机体颜色\":\"银白色\",\"容量\":\"30L\",\"净水模式\":\"抑菌装置净水\"}",
      "points": 10
    },
    {
      "id": "S1235467591854657536",
      "name": "沁园（TRULIVA）饮水机 家用立式净饮机 即热式净水器净水机纯水直饮机ROplus JLXZ-RO Plus  蓝色  25L  抑菌装置净水",
      "price": 669,
      "seckillPrice": 9531,
      "image": "https://img14.360buyimg.com/n7/jfs/t1/99256/25/13788/107923/5e5e10a2Ed03b7e32/c91175d9ff692da9.jpg",
      "updateTime": "2020-03-12T18:57:59.000+0000",
      "category1Id": "74",
      "category2Id": "89",
      "category3Id": "93",
      "category1Name": "家用电器",
      "category2Name": "生活电器",
      "category3Name": "饮水机",
      "brandName": "沁园",
      "bgtime": null,
      "brandId": "325411",
      "seckillBegin": "2020-04-08T09:33:03.000+0000",
      "seckillEnd": "2020-06-23T09:33:03.000+0000",
      "status": 2,
      "spec": "{\"机体颜色\":\"蓝色\",\"容量\":\"25L\",\"净水模式\":\"抑菌装置净水\"}",
      "points": 10
    },
    {
      "id": "S1235467591636553728",
      "name": "沁园（TRULIVA）饮水机 家用立式净饮机 即热式净水器净水机纯水直饮机ROplus JLXZ-RO Plus  银白色  30L  过滤净水",
      "price": 99,
      "seckillPrice": 4321,
      "image": "https://img14.360buyimg.com/n7/jfs/t1/99256/25/13788/107923/5e5e10a2Ed03b7e32/c91175d9ff692da9.jpg",
      "updateTime": "2020-03-12T18:57:59.000+0000",
      "category1Id": "74",
      "category2Id": "89",
      "category3Id": "93",
      "category1Name": "家用电器",
      "category2Name": "生活电器",
      "category3Name": "饮水机",
      "brandName": "沁园",
      "bgtime": null,
      "brandId": "325411",
      "seckillBegin": "2020-04-08T09:33:03.000+0000",
      "seckillEnd": "2020-06-23T09:33:03.000+0000",
      "status": 2,
      "spec": "{\"机体颜色\":\"银白色\",\"容量\":\"30L\",\"净水模式\":\"过滤净水\"}",
      "points": 10
    },
    {
      "id": "S1235467592064372736",
      "name": "沁园（TRULIVA）饮水机 家用立式净饮机 即热式净水器净水机纯水直饮机ROplus JLXZ-RO Plus  绿色  22L  过滤净水",
      "price": 579,
      "seckillPrice": 1219,
      "image": "https://img14.360buyimg.com/n7/jfs/t1/99256/25/13788/107923/5e5e10a2Ed03b7e32/c91175d9ff692da9.jpg",
      "updateTime": "2020-03-12T18:57:59.000+0000",
      "category1Id": "74",
      "category2Id": "89",
      "category3Id": "93",
      "category1Name": "家用电器",
      "category2Name": "生活电器",
      "category3Name": "饮水机",
      "brandName": "沁园",
      "bgtime": null,
      "brandId": "325411",
      "seckillBegin": "2020-04-08T09:33:03.000+0000",
      "seckillEnd": "2020-06-23T09:33:03.000+0000",
      "status": 2,
      "spec": "{\"机体颜色\":\"绿色\",\"容量\":\"22L\",\"净水模式\":\"过滤净水\"}",
      "points": 10
    },
    {
      "id": "S1235467592102121472",
      "name": "沁园（TRULIVA）饮水机 家用立式净饮机 即热式净水器净水机纯水直饮机ROplus JLXZ-RO Plus  绿色  25L  手动净水",
      "price": 1699,
      "seckillPrice": 9087,
      "image": "https://img14.360buyimg.com/n7/jfs/t1/99256/25/13788/107923/5e5e10a2Ed03b7e32/c91175d9ff692da9.jpg",
      "updateTime": "2020-03-12T18:57:59.000+0000",
      "category1Id": "74",
      "category2Id": "89",
      "category3Id": "93",
      "category1Name": "家用电器",
      "category2Name": "生活电器",
      "category3Name": "饮水机",
      "brandName": "沁园",
      "bgtime": null,
      "brandId": "325411",
      "seckillBegin": "2020-04-08T09:33:03.000+0000",
      "seckillEnd": "2020-06-23T09:33:03.000+0000",
      "status": 2,
      "spec": "{\"机体颜色\":\"绿色\",\"容量\":\"25L\",\"净水模式\":\"手动净水\"}",
      "points": 10
    },
    {
      "id": "S1235467592181813248",
      "name": "沁园（TRULIVA）饮水机 家用立式净饮机 即热式净水器净水机纯水直饮机ROplus JLXZ-RO Plus  绿色  30L  自动净水",
      "price": 1299,
      "seckillPrice": 7735,
      "image": "https://img14.360buyimg.com/n7/jfs/t1/99256/25/13788/107923/5e5e10a2Ed03b7e32/c91175d9ff692da9.jpg",
      "updateTime": "2020-03-12T18:57:59.000+0000",
      "category1Id": "74",
      "category2Id": "89",
      "category3Id": "93",
      "category1Name": "家用电器",
      "category2Name": "生活电器",
      "category3Name": "饮水机",
      "brandName": "沁园",
      "bgtime": null,
      "brandId": "325411",
      "seckillBegin": "2020-04-08T09:33:03.000+0000",
      "seckillEnd": "2020-06-23T09:33:03.000+0000",
      "status": 2,
      "spec": "{\"机体颜色\":\"绿色\",\"容量\":\"30L\",\"净水模式\":\"自动净水\"}",
      "points": 10
    }
  ],
  "pageable": {
    "sort": {
      "sorted": false,
      "unsorted": true,
      "empty": true
    },
    "pageNumber": 0,
    "pageSize": 20,
    "offset": 0,
    "paged": true,
    "unpaged": false
  },
  "facets": [],
  "aggregations": null,
  "scrollId": null,
  "maxScore": 1.0,
  "totalElements": 43386,
  "totalPages": 2170,
  "first": true,
  "sort": {
    "sorted": false,
    "unsorted": true,
    "empty": true
  },
  "numberOfElements": 20,
  "last": false,
  "size": 20,
  "number": 0,
  "empty": false
}